…
    ##   f2_cent = col_double(),
    ##   tl = col_double(),
    ##   f1_20 = col_double(),
    ##   f1_35 = col_double(),
    ##   f1_50 = col_double(),
    ##   f1_65 = col_double(),
    ##   f1_80 = col_double(),
    ##   f2_20 = col_double(),
    ##   f2_35 = col_double(),
    ##   f2_50 = col_double(),
    ##   f2_65 = col_double(),
    ##   f2_80 = col_double()
    ## )

    ## # A tibble: 36 x 17
    ##    id    item   vowel language f1_cent f2_cent    tl f1_20 f1_35 f1_50 f1_65
    ##    <chr> <chr>  <chr> <chr>      <dbl>   <dbl> <dbl> <dbl> <dbl> <dbl> <dbl>
    ##  1 gcd   meet   i     en          499.   1399.  225.  483.  487.  501.  508.
    ##  2 gcd   beat   i     en          490.   2696.  773.  442.  462.  495.  522.
    ##  3 gcd   feet   i     en          504.   2645. 1560.  524.  541.  583.  533.
    ##  4 gcd   seat   i     en          536.   2527. 5213.  487.  514.  533.  549.
    ##  5 gcd   heat   i     en          519.   2522. 1780.  493.  515.  518.  549.
    ##  6 gcd   fleet  i     en          517.   2678. 1221.  465.  506.  531.  565.
    ##  7 gcd   moss   a     en         1034.   1426.  421. 1052. 1060.  987. 1017.
    ##  8 gcd   bot    a     en          955.   1276.  348.  952. 1003.  941.  997.
    ##  9 gcd   fought a     en          940.   1370.  786.  899.  926.  994. 1008.
    ## 10 gcd   sought a     en          835.   1233.  364.  729.  850.  814.  849.
    ## # ... with 26 more rows, and 6 more variables: f1_80 <dbl>, f2_20 <dbl>,
    ## #   f2_35 <dbl>, f2_50 <dbl>, f2_65 <dbl>, f2_80 <dbl>
…
